{
	"lintOptions": {
		"typeCheck": true
	},
	"extends": "tslint:all",
	"rules": {
		"completed-docs": false,
		"file-name-casing": [true, {
			"index.ts": "camel-case",
			".ts": "pascal-case"
		}],
		"increment-decrement": false,
		"indent": [ true, "tabs" ],
		"interface-name": {
			"options": "never-prefix"
		},
		"member-ordering": [
			true,
			{
				"order": "fields-first",
				"alphabetize": false
			}
		],
		"no-bitwise": false,
		"one-line": false,
		"no-unsafe-any": false,
		"only-arrow-functions": {
			"options": "allow-named-functions"
		},
		"prefer-function-over-method": false,
		"quotemark": [true, "single"],
		"space-before-function-paren": {
			"options": {
				"anonymous": "always",
				"asyncArrow": "always",
				"constructor": "always",
				"method": "always",
				"named": "always"
			}
		},
		"strict-boolean-expressions": false,
		"typedef": false
	}
}
